epoch,num_episodes,mean_episode_length,total_reward,reward_per_episode,mean_q
1,100,100.0,3833.94429009,38.3394429009,1646.46875
2,100,100.0,4171.4456024,41.714456024,1555.0904541
3,100,100.0,4789.51177734,47.8951177734,1389.70947266
4,100,100.0,3810.75090825,38.1075090825,1233.48205566
5,100,100.0,-4524.86486017,-45.2486486017,1167.65563965
6,100,100.0,3749.29792698,37.4929792698,1074.4395752
7,100,100.0,-5612.28372662,-56.1228372662,1020.26086426
8,100,100.0,197.033981137,1.97033981137,949.539611816
9,100,100.0,2263.35242182,22.6335242182,883.455444336
10,100,100.0,5002.97329866,50.0297329866,850.526550293
11,100,100.0,5053.0459474,50.530459474,836.653869629
12,100,100.0,5278.64187379,52.7864187379,804.096130371
13,100,100.0,892.607437224,8.92607437224,826.326049805
14,100,100.0,2296.54185288,22.9654185288,837.897827148
15,100,100.0,-5634.08270655,-56.3408270655,836.764526367
16,100,100.0,5331.757751,53.31757751,803.025817871
17,100,100.0,4992.84792962,49.9284792962,792.928649902
18,100,100.0,3353.13856837,33.5313856837,810.211486816
19,100,100.0,5002.66480119,50.0266480119,855.0
20,100,100.0,2229.72379376,22.2972379376,906.958618164
21,100,100.0,5285.82707715,52.8582707715,868.106933594
22,100,100.0,2837.05318677,28.3705318677,901.920837402
23,100,100.0,-1483.32191283,-14.8332191283,945.198364258
24,100,100.0,4216.61763491,42.1661763491,950.560546875
25,100,100.0,-3461.43407746,-34.6143407746,959.954162598
26,100,100.0,1622.01584104,16.2201584104,919.223205566
27,100,100.0,3817.71753307,38.1771753307,934.118286133
28,100,100.0,3366.08919326,33.6608919326,1012.109375
29,100,100.0,-635.092967242,-6.35092967242,990.901123047
30,100,100.0,1653.00114744,16.5300114744,1016.83258057
31,100,100.0,-5645.66441387,-56.4566441387,1080.4362793
32,100,100.0,5182.63808058,51.8263808058,1078.9263916
33,100,100.0,3332.23614562,33.3223614562,1137.4128418
34,100,100.0,1644.55731762,16.4455731762,1087.18164062
35,100,100.0,-1509.39227679,-15.0939227679,1052.6373291
36,100,100.0,5212.2530366,52.122530366,1079.60961914
37,100,100.0,1638.87916901,16.3887916901,1130.98840332
38,100,100.0,194.486484947,1.94486484947,1138.90307617
39,100,100.0,5003.14349865,50.0314349865,1188.82702637
40,100,100.0,4957.6859863,49.576859863,1153.99523926
